10018
10068
10164
1026
10415
1045
1048
10537
10562
10800
11132
11156
11184
1179
1432
1487
1499
1543
1634
1671
1789
1803
1806
1890
1948
1949
1956
1994
2033
207
2149
219
23022
2321
23411
2353
2525
2528
26574
2678
27250
27330
2920
2921
2922
2932
3001
3037
3038
3065
3091
3162
324
3303
331
332
335
3394
3458
3486
355
3553
356
3576
3600
3655
3691
3718
3732
3845
3855
387
3875
3957
3958
4000
406881
4089
4171
4193
4233
4292
4316
4323
4507
4582
4609
4772
4773
4790
4893
50943
5169
5176
5187
5243
5376
5420
54474
55293
55502
5580
5581
5728
573
5743
5747
5783
5819
595
6383
6401
6402
6403
64283
643
6521
6615
6662
6667
6693
6772
6774
6776
6908
6935
6997
7040
7048
7078
7099
7114
7124
7157
7184
7298
7421
7422
7803
8073
841
842
846
8741
8743
8795
8797
8837
8842
9252
960
9604
999
