7515
817
332
7157
5243
2073
5290
1543
978
6566
4968
4683
7133
8626
1317
57510
9533
63895
3845
4072
207
328
673
142
3953
3553
7040
3418
3091
4893
7421
3223
2067
161176
3568
8840
2114
1956
3659
1499
246213
840
79727
4091
55137
133957
2068
80731
2034
201973
2271
116328
4524
284498
596
158297
1719
4437
9470
387893
2950
10257
284217
472
160140
4318
57120
2072
4015
7124
7507
7161
6387
4548
7518
3981
23007
3791
1240
4522
100506497
177
6048
374378
152002
50616
27351
4193
2817
100130449
1373
1026
9429
7015
23236
238
10015
7298
3315
10499
79072
4552
7422
55937
6355
389421
1031
10849
4595
4233
5329
3887
56852
1244
1136
57644
7098
1594
7520
7465
2064
81037
5328
414236
56949
56311
1557
3309
51162
581
842
1312
2735
1591
23649
6648
8854
3516
3383
3479
7096
150280
1457
144363
11046
1143
54531
165082
3426
153339
2638
3265
1743
10217
7517
3831
9582
5291
1378
2778
222545
5071
434
6240
857
2946
2944
4582
1577
1950
123688
1006
23294
4802
6494
259232
2321
9194
1826
